Subrect
{
    $Material "decals/csgo/Decals_bulletsheet"
    $Pos "64 256"
    $Size "64 64"
    $modelmaterial "decals/csgo/tile/tile1"
    $decal 1
    $decalscale "0.15"
    $decalScaleVariation "0.15"
}
