"VertexLitGeneric"
{
	"$baseTexture" "models\weapons\w_models\csgo\w_knife_m9_bay\knife_m9_bay"
	"$phongexponent" 30
	"$phongalbedotint" "1"
	//"$phongdisablehalflambert" "1"
	"$phongexponenttexture" "models\weapons\w_models\csgo\w_knife_m9_bay\knife_m9_bay_exponent"
	"$phong" "1"
	"$phongboost" ".2"
	"$phongfresnelranges" "[.2 0.5 1]"
	
	 
	"$basemapalphaphongmask" "1"

	
	"$envmap" "env_cubemap"
	//"$envmapmask" "models\weapons\v_models\csgo\knife_m9_bay\m9_bay_env"
	//"$envMapFresnelMinMaxExp" "[.5 .1 .12]" 
	"$envmapfresnel" "1"
	//"$baseAlphaEnvMapMaskMinMaxExp" "[1 1 3]" 
	//"$envmaptint" 		"[3.2 2 3.5]"		
	
	
}

