VertexLitGeneric
{
"$baseTexture" "models\weapons\v_models\csgo\smg_mp7\smg_mp7"
"$phongexponenttexture" "models\weapons\v_models\csgo\smg_mp7\smg_mp7_exponent"

	"$phong" "1"


	"$phongboost" "2"
	"$phongalbedoboost" "25"
	"$phongfresnelranges" "[.83 .83 1]"

	"$basemapalphaphongmask" "1"

	"$phongalbedotint" "1"

	"$phongdisablehalflambert" "1"

	"$envmap" "env_cubemap"
	"$envmapfresnel" "1"
	"$envmaptint" 		"[.25 .25 .25]"

}




