"VertexlitGeneric"
{
	"$basetexture" "models\props_holidays\C4_gift\C4_gift_color"

	"$phong" "1"
	"$phongBoost" "2"
	"$phongFresnelRanges" "[.4 .8 1]"
	"$phongExponent" "75"


	"$basemapalphaphongmask" "1"

	"$envmap" "env_cubemap"
	"$envmapfresnel" "1"
	"$envmapFresnelMinMaxExp" "[0 .5 1]"
	"$envmaptint" 		"[.5 .35 .1]"

//	"$phongalbedotint" "1"

  	"$phongdisablehalflambert" "1"

	


}