unlitgeneric
{
	$additive 1
	$envmap env_cubemap
	$envmaptint "[.2 .25 .2]"
	$envmapmask models\weapons\shared\scope\scope_lens_reflect_mask
	$ignorez 1
	Proxies
	{
		IronSightAmount
		{
			resultVar	"$alpha"
			invert		1
		}
	}
}