"VertexLitGeneric"
{
	"$baseTexture" "models\weapons\v_models\csgo\pist_tec9\pist_tec9"

	"$phong" "1"
	"$phongboost" "1"
	"$phongalbedoboost" "60"
	"$phongfresnelranges" "[.83 .83 1]"
"$phongexponenttexture" "models\weapons\v_models\csgo\pist_tec9\pist_tec9_exponent"

	"$basemapalphaphongmask" "1"

	"$envmap" "env_cubemap"
	"$envmapfresnel" "1"
	"$envmaptint" 		"[.1 .1 .1]"

	"$phongalbedotint" "1"

	"$phongdisablehalflambert" "1"
}
