"VertexLitGeneric"
{
	"$baseTexture" "models\weapons\v_models\csgo\mach_negev\mach_negev"
	"$phongexponenttexture" "models\weapons\v_models\csgo\mach_negev\mach_negev_exponent"
	"$phong" "1"


	"$phongboost" "1.5"
	"$phongalbedoboost" "80"
	"$phongfresnelranges" "[.83 .83 1]"

	"$basemapalphaphongmask" "1"

	"$phongalbedotint" "1"

	"$phongdisablehalflambert" "1"

	"$envmap" "env_cubemap"
	"$envmapfresnel" "1"
	"$envmaptint" 		"[.1 .1 .1]"

	"$detail" "models\weapons\v_models\csgo\mach_negev\mach_negev_heat_overlay" 
	"$detailscale" "1"
	"$detailblendfactor" "0.001"
	"$detailblendmode" "5"
	"$HeatAmount" "0"
	Proxies
	{
		Equals
		{
			srcVar1 $HeatAmount
			resultVar $detailblendfactor
		}
	}	
}
