"vertexlitgeneric"
{
	"$basetexture"      "models/weapons/v_models/eq_sonar_bomb/sonar_bomb_color"
	"$translucent"      "1"
	"$selfillumtint"    "[1 1 1]"
	"$envmap"           env_cubemap
	"$envmaptint"       "[0.4 0.8 0.9]"
	"$envmapcontrast"   "0.9"
	"$envmapsaturation" ".2"
}