"VertexLitGeneric"
{
	"$baseTexture" "models/weapons/v_models/csgo/c4/c4_switch"
	"$color" 		"[0.8 0.8 0.8]"
	"$phong" "1"
	//"$phongBoost" "1.5"
	"$phongFresnelRanges" "[.4 .8 1]"
	"$phongExponent" "75"
	//"$phongTint" "[1 1 1]"

	"$basemapalphaphongmask" "1"

	"$envmap" "env_cubemap"
	"$envmapfresnel" "1"
	"$envmapFresnelMinMaxExp" "[0 .5 1]"
	"$envmaptint" 		"[0.9 0.9 0.9]"

//	"$phongalbedotint" "1"

  "$phongdisablehalflambert" "1"
}
